<svg class="vector fh" width="300px" height="300px" xmlns="http://www.w3.org/2000/svg" baseProfile="full" version="1.1" style="width: 300px; height: 300px; stroke: #101010; stroke-width: 20; fill: none; stroke-linecap: square;">

<path d="M30,180 L90,150 L30,120  M210,90 L210,210 L270,210  L270,90 L210,90  "></path>

</svg>
